tweet,Original_Tweet,name,hs_cnt,Follower_Count,Following_Count,Profile_img_url,Len_tweet,retweet_count,url_cnt,men_cnt,Like_count,Liked_Tweet_Count,Tweet_created_at,TII
hello sweetly wanna to lick my pussy meet me here,"Hello! Sweetly💘, wanna to lick my pussy? meet me here
https://t.co/xo8wpq74tK https://t.co/yzVvKMl5XE",tootsie1450,0.0,9.0,840.0,https://pbs.twimg.com/profile_images/792969335295897600/0nzy6Tz8_normal.jpg,101.0,0.0,2.0,0.0,0.0,390.0,2016-10-31 05:59:54,3.0487936434131977
hello honey boy wanna to lick my pussy find me,"Hello! Honey boy💕, wanna to lick my pussy? find me
https://t.co/gobM5JZYvJ https://t.co/NggE6MjcTo",tootsie1450,0.0,9.0,840.0,https://pbs.twimg.com/profile_images/792969335295897600/0nzy6Tz8_normal.jpg,98.0,0.0,2.0,0.0,0.0,390.0,2016-10-31 05:57:05,2.986879679647616
hello honey boy wanna to lick my pussy join and find me,"Hello! Honey boy💛, wanna to lick my pussy? Join and find me
https://t.co/XxVWadzyH1 https://t.co/1YHjbzQtJm",tootsie1450,0.0,9.0,840.0,https://pbs.twimg.com/profile_images/792969335295897600/0nzy6Tz8_normal.jpg,107.0,0.0,2.0,0.0,0.0,390.0,2016-10-31 05:50:55,3.290387600513254
the only options in the women s costume section are so sexualized we want more choices,.@PartyCity the only options in the women's costume section are so sexualized. We want more choices! #SexyorSexist https://t.co/EvQjbZZ3JO,tootsie1450,1.0,9.0,840.0,https://pbs.twimg.com/profile_images/792969335295897600/0nzy6Tz8_normal.jpg,138.0,0.0,1.0,1.0,0.0,390.0,2016-10-27 20:21:43,4.337556414856929
homemade salted caramel greenwichmarketfoodcourt,"Homemade salted caramel greenwichmarketfoodcourt 

#pancakes #pancakestack #foodie #foodporn… https://t.co/juwS6UzrXG",planetpancakes,4.0,2113.0,3363.0,https://pbs.twimg.com/profile_images/572456064419758080/W0XQDSaH_normal.jpeg,117.0,0.0,1.0,0.0,0.0,177.0,2017-12-02 13:42:11,4.076005156745486
yum salted caramel and marshmallows today and this weekend,Yum! Salted caramel and marshmallows..@shopgreenwich today and this weekend #pancakes #yummy… https://t.co/SgEPToi8ng,planetpancakes,2.0,2113.0,3363.0,https://pbs.twimg.com/profile_images/572456064419758080/W0XQDSaH_normal.jpeg,117.0,0.0,1.0,1.0,0.0,177.0,2017-11-15 12:52:01,3.9326114169578528
pancakes on wheels roll down this weekend to greenwich market we re here friday to sunday,Pancakes on wheels! Roll down this weekend to greenwich market we're here Friday to Sunday 😛#picoftheday #pancakes #Foodie #foodgasm#nom https://t.co/tD8dpNoDZa,planetpancakes,5.0,2113.0,3363.0,https://pbs.twimg.com/profile_images/572456064419758080/W0XQDSaH_normal.jpeg,160.0,3.0,1.0,0.0,6.0,177.0,2017-06-02 09:26:16,5.516041383691715
hi jimmy we normally are but not this wednesday,@jyandell23 hi Jimmy..we normally are but not this Wednesday 😭,planetpancakes,0.0,2113.0,3363.0,https://pbs.twimg.com/profile_images/572456064419758080/W0XQDSaH_normal.jpeg,62.0,0.0,0.0,1.0,0.0,177.0,2016-09-04 12:25:57,2.2689397097043438
sounds great likewise if you fancy a little pancake,@ThelavenderSW11 sounds great!🤗 likewise if you fancy a little pancake,planetpancakes,0.0,2113.0,3363.0,https://pbs.twimg.com/profile_images/572456064419758080/W0XQDSaH_normal.jpeg,70.0,0.0,0.0,1.0,2.0,177.0,2016-08-05 17:13:49,2.56347664750583
we ll be back in as normal from tomorrow sorry we missed you,@Mobile_Caterers we'll be back in as normal from tomorrow 🤗sorry we missed you!,planetpancakes,0.0,2113.0,3363.0,https://pbs.twimg.com/profile_images/572456064419758080/W0XQDSaH_normal.jpeg,79.0,0.0,0.0,1.0,0.0,177.0,2016-05-03 18:23:43,2.8828449940842527
thanks guys it was amazing to cater for you absolute pleasure anytime,@skinnyoflynny @LiftLondon @Microsoft  thanks guys it was amazing to cater for you absolute pleasure anytime 🤗😎,planetpancakes,0.0,2113.0,3363.0,https://pbs.twimg.com/profile_images/572456064419758080/W0XQDSaH_normal.jpeg,111.0,0.0,0.0,3.0,0.0,177.0,2016-04-01 14:00:24,3.784039374078203
good thanks went well whilst thinking warm thoughts,@GreenwichHour @shopgreenwich @No57A @LilikasTreats @RamenPimp @EJMunchies good thanks went well whilst thinking warm thoughts!😆,planetpancakes,0.0,2113.0,3363.0,https://pbs.twimg.com/profile_images/572456064419758080/W0XQDSaH_normal.jpeg,128.0,1.0,0.0,6.0,2.0,177.0,2016-02-28 20:16:19,4.177002708725613
david bowie rebel rebel rest in peace space man,David Bowie - Rebel Rebel Rest in peace space man 🤘🏻😎🤘🏻 https://t.co/0QxspE4Pu9,planetpancakes,0.0,2113.0,3363.0,https://pbs.twimg.com/profile_images/572456064419758080/W0XQDSaH_normal.jpeg,79.0,2.0,1.0,0.0,2.0,177.0,2016-01-11 12:39:29,2.9190520731429026
get down to greenwich market today for gorgeous chocolates amazing vegan food amp scotcheggs,Get down to Greenwich market today for #minipancakes gorgeous chocolates amazing vegan food &amp; scotcheggs #nomnom https://t.co/uGyCnFh8ED,planetpancakes,2.0,2113.0,3363.0,https://pbs.twimg.com/profile_images/572456064419758080/W0XQDSaH_normal.jpeg,140.0,1.0,1.0,0.0,2.0,177.0,2015-12-13 11:23:23,4.922971700980689
our location can change in greenwich and spitalfields is closed this week for food come the weekends we d love 2see u,"@squirlnutrients our location can change in Greenwich and spitalfields is closed this week for food, come the weekends we'd love 2see u 😎",planetpancakes,0.0,2113.0,3363.0,https://pbs.twimg.com/profile_images/572456064419758080/W0XQDSaH_normal.jpeg,137.0,0.0,0.0,1.0,0.0,177.0,2015-09-07 08:42:48,4.762988417426928
hi when were you there we re all there on weekends and we are also at spitalfields,@squirlnutrients @RubysofLondon hi when were you there?..we're all there on weekends and we @planetpancakes are also at spitalfields 😋,planetpancakes,0.0,2113.0,3363.0,https://pbs.twimg.com/profile_images/572456064419758080/W0XQDSaH_normal.jpeg,134.0,0.0,0.0,3.0,0.0,177.0,2015-09-06 14:56:11,4.599631456946604
sorry maddie crazy weather we felt people would want ice cream more we ll be there on the weekend for sure,@_maddieliz_ sorry maddie..crazy weather we felt people would want ice cream more 😋🍦we'll be there on the weekend for sure!,planetpancakes,0.0,2113.0,3363.0,https://pbs.twimg.com/profile_images/572456064419758080/W0XQDSaH_normal.jpeg,123.0,0.0,0.0,1.0,0.0,177.0,2015-07-02 17:36:07,4.381194831339211
no today as market is closed in mondays until summer breaks we are there tomorrow,@MoniqaOnline no today as market is closed in Mondays until summer breaks. We are there tomorrow.,planetpancakes,0.0,2113.0,3363.0,https://pbs.twimg.com/profile_images/572456064419758080/W0XQDSaH_normal.jpeg,97.0,0.0,0.0,1.0,0.0,177.0,2015-05-18 12:47:05,3.6287904528582526
anytime totally sucks that some people have nothing to fill their time with,"@thevaluesband anytime :), totally sucks that some people have nothing to fill their time with",planetpancakes,0.0,2113.0,3363.0,https://pbs.twimg.com/profile_images/572456064419758080/W0XQDSaH_normal.jpeg,94.0,0.0,0.0,1.0,0.0,177.0,2015-03-31 00:15:56,3.5906215826700967
some of staff tucking into his weekly ritual of blueberry amp belgian white chocolate,Some of staff @shopgreenwich tucking into his weekly ritual of blueberry &amp;belgian white chocolate #FoodPorn http://t.co/z6YHuZA0iO,planetpancakes,1.0,2113.0,3363.0,https://pbs.twimg.com/profile_images/572456064419758080/W0XQDSaH_normal.jpeg,134.0,0.0,1.0,1.0,0.0,177.0,2015-03-29 12:51:23,4.882483924295993
it s all puppets and theatrics here today,It's all puppets and theatrics here @shopgreenwich today! http://t.co/t6T72kYuYY,planetpancakes,0.0,2113.0,3363.0,https://pbs.twimg.com/profile_images/572456064419758080/W0XQDSaH_normal.jpeg,80.0,2.0,1.0,1.0,2.0,177.0,2015-03-28 14:57:21,3.1961577306269686
we will in future but not at present it would be the same consistency as the one your using but fluffier,"@thePancakeBot we will in future but not at present, it would be the same consistency  as the one your using but fluffier 😋",planetpancakes,0.0,2113.0,3363.0,https://pbs.twimg.com/profile_images/572456064419758080/W0XQDSaH_normal.jpeg,123.0,0.0,0.0,1.0,0.0,177.0,2015-03-27 20:57:05,4.58036046849768
good luck with the funding campaign great idea,.@thePancakeBot good luck with the funding campaign great idea! #pancake #genius #amazing,planetpancakes,3.0,2113.0,3363.0,https://pbs.twimg.com/profile_images/572456064419758080/W0XQDSaH_normal.jpeg,89.0,1.0,0.0,1.0,2.0,177.0,2015-03-27 18:32:36,3.7883001558528817
spring is almost here come to and celebrate all things new and awake,Spring is (almost) here!!🌳🌱🌷🌸..come to @shopgreenwich and celebrate all things new and awake #yummy #greenwich http://t.co/7DP5udGt2U,planetpancakes,2.0,2113.0,3363.0,https://pbs.twimg.com/profile_images/572456064419758080/W0XQDSaH_normal.jpeg,133.0,2.0,1.0,1.0,3.0,177.0,2015-03-15 12:09:13,5.059051349339876
today s homemade sauces raspberry blueberry amp salted caramel,"Today's homemade sauces: raspberry, blueberry &amp; salted caramel #foodPorn http://t.co/7lqBd80H6b",planetpancakes,1.0,2113.0,3363.0,https://pbs.twimg.com/profile_images/572456064419758080/W0XQDSaH_normal.jpeg,99.0,5.0,1.0,0.0,2.0,177.0,2015-03-14 11:58:46,4.047214126480475
thanks romeo looking forward to listening to it,"@RomeoCrow thanks Romeo, looking forward to listening to it 😎",planetpancakes,0.0,2113.0,3363.0,https://pbs.twimg.com/profile_images/572456064419758080/W0XQDSaH_normal.jpeg,61.0,0.0,0.0,1.0,0.0,177.0,2015-03-08 17:27:56,2.8557565280253394
mini pancakes made from a unique homemade recipe created from the finest rice flour,"@TheoPaphitis #SBS Mini pancakes, made from a unique homemade recipe created from the finest rice flour 😋 https://t.co/8YOZJ2Cm4p",planetpancakes,1.0,2113.0,3363.0,https://pbs.twimg.com/profile_images/572456064419758080/W0XQDSaH_normal.jpeg,129.0,0.0,1.0,1.0,0.0,177.0,2015-03-01 17:27:20,4.975424759524278
amp today swing on by and beat those rainy blues with our selection of,".@shopgreenwich &amp; @HatchHomerton today, swing on by and beat those rainy blues with our selection of #pancakes http://t.co/VTw7GRaJYF",planetpancakes,1.0,2113.0,3363.0,https://pbs.twimg.com/profile_images/572456064419758080/W0XQDSaH_normal.jpeg,137.0,3.0,1.0,2.0,3.0,177.0,2015-02-28 12:22:27,5.26123058645607
are you still in paris mein liebling,@RL_Milliner are you still in Paris mein liebling? 🚲🇫🇷🐸🐌,planetpancakes,0.0,2113.0,3363.0,https://pbs.twimg.com/profile_images/572456064419758080/W0XQDSaH_normal.jpeg,56.0,0.0,0.0,1.0,0.0,177.0,2015-02-24 10:24:27,2.921727910878749
amazing video roll on spring we say,"Amazing video..roll on spring we say!
https://t.co/ruy1vXg17c",planetpancakes,0.0,2113.0,3363.0,https://pbs.twimg.com/profile_images/572456064419758080/W0XQDSaH_normal.jpeg,61.0,0.0,1.0,0.0,1.0,177.0,2015-02-19 22:18:28,3.1641953150775803
hi jamie we have closed for the day just saw your message but we can make it up to you this fri sat amp sun at hatch,"@twippy6 hi Jamie, we have closed for the day just saw your message..but we can make it up to you this fri, sat &amp; sun at hatch : )",planetpancakes,0.0,2113.0,3363.0,https://pbs.twimg.com/profile_images/572456064419758080/W0XQDSaH_normal.jpeg,134.0,0.0,0.0,1.0,0.0,177.0,2015-02-17 16:52:33,5.4368701221948506
we re back again for here till this afternoon so come on down to see us,We're back again @HatchHomerton for #PancakeDay ! Here till this afternoon so come on down to see  us http://t.co/3hIm6xs6Ze,planetpancakes,1.0,2113.0,3363.0,https://pbs.twimg.com/profile_images/572456064419758080/W0XQDSaH_normal.jpeg,124.0,1.0,1.0,1.0,1.0,177.0,2015-02-17 10:28:29,5.208623809599982
nick drake pink moon bit of the old nick drake to kick start our sunday,Nick Drake - Pink Moon ..bit of the old Nick drake to kick start our Sunday @HatchHomerton 😴🎶😀👍😍👍 http://t.co/sI5he77GMm,planetpancakes,0.0,2113.0,3363.0,https://pbs.twimg.com/profile_images/572456064419758080/W0XQDSaH_normal.jpeg,120.0,0.0,1.0,1.0,0.0,177.0,2015-02-15 11:17:04,5.040858671691587
pancake race today with a few familiar faces,Pancake race @shopgreenwich today with a few familiar faces! 🙊💏🙋👭👬👫👯👑 http://t.co/WCoOla0yOE,planetpancakes,0.0,2113.0,3363.0,https://pbs.twimg.com/profile_images/572456064419758080/W0XQDSaH_normal.jpeg,92.0,2.0,1.0,1.0,2.0,177.0,2015-02-14 13:11:28,4.255118465452645
we re here all weekend at hatch why not try our homemade salted caramel with banana or nuts or,We're here all weekend at hatch!..why not try our homemade salted caramel with banana or nuts..or… http://t.co/NY17EEbEV2,planetpancakes,0.0,2113.0,3363.0,https://pbs.twimg.com/profile_images/572456064419758080/W0XQDSaH_normal.jpeg,121.0,0.0,1.0,0.0,1.0,177.0,2015-02-14 11:38:52,5.204153152663659
yay thanks for printing it hols x,@HatchHomerton yay! Thanks for printing it hols x,planetpancakes,0.0,2113.0,3363.0,https://pbs.twimg.com/profile_images/572456064419758080/W0XQDSaH_normal.jpeg,49.0,0.0,0.0,1.0,1.0,177.0,2015-02-09 14:12:45,3.110588163505482
sounds amazing looking forward to the inspiration,@100waystohappy sounds amazing..looking forward to the inspiration 😍😋,planetpancakes,0.0,2113.0,3363.0,https://pbs.twimg.com/profile_images/572456064419758080/W0XQDSaH_normal.jpeg,69.0,1.0,0.0,1.0,1.0,177.0,2015-02-07 12:34:37,3.7583259951931844
they ll be falling about the place i promise what you up to today yourselves,@Manzanosbistro they'll be falling about the place I promise!😂..what you up to today yourselves?,planetpancakes,0.0,2113.0,3363.0,https://pbs.twimg.com/profile_images/572456064419758080/W0XQDSaH_normal.jpeg,96.0,0.0,0.0,1.0,0.0,177.0,2015-02-07 11:19:54,4.6231771300184015
we ll be appearing next week pop on by and keep those fingers warm with some of our pancakes,We'll be appearing @HatchHomerton next week!..pop on by and keep those fingers warm with some of our pancakes #yummy http://t.co/h9QRJ6xcTA,planetpancakes,1.0,2113.0,3363.0,https://pbs.twimg.com/profile_images/572456064419758080/W0XQDSaH_normal.jpeg,139.0,2.0,1.0,1.0,3.0,177.0,2015-02-06 23:23:11,5.985384075784735
salted caramel amp white chocolate,Salted caramel &amp; white chocolate #yummy #greenwichmarket http://t.co/2E11zakYxL,planetpancakes,2.0,2113.0,3363.0,https://pbs.twimg.com/profile_images/572456064419758080/W0XQDSaH_normal.jpeg,83.0,1.0,1.0,0.0,1.0,177.0,2015-01-17 11:32:04,4.4425924434711375
we re here all weekend at greenwich market,We're here all weekend at Greenwich market http://t.co/RunGUA9UHi,planetpancakes,0.0,2113.0,3363.0,https://pbs.twimg.com/profile_images/572456064419758080/W0XQDSaH_normal.jpeg,65.0,4.0,1.0,0.0,4.0,177.0,2015-01-17 11:30:35,3.7859485777052173
thanks for following come down this weekend to greenwich market and try our pancakes,"@SimplePromote thanks for following, come down this weekend to Greenwich market and try our pancakes #SimplePromote #yum",planetpancakes,2.0,2113.0,3363.0,https://pbs.twimg.com/profile_images/572456064419758080/W0XQDSaH_normal.jpeg,120.0,0.0,0.0,1.0,1.0,177.0,2015-01-14 15:04:50,5.648953038958547
we ll look forward to it hopefully warmer then when you do,@chrisellis4real we'll look forward to it..hopefully warmer then when you do ⛄️☔️☀️😅,planetpancakes,0.0,2113.0,3363.0,https://pbs.twimg.com/profile_images/572456064419758080/W0XQDSaH_normal.jpeg,84.0,0.0,0.0,1.0,1.0,177.0,2015-01-13 15:20:54,4.493217768557798
thanks for following chris swing by to greenwich market in london sometime,@chrisellis4real thanks for following Chris swing by to Greenwich market in London sometime :),planetpancakes,0.0,2113.0,3363.0,https://pbs.twimg.com/profile_images/572456064419758080/W0XQDSaH_normal.jpeg,94.0,0.0,0.0,1.0,1.0,177.0,2015-01-13 15:18:35,4.822703104643917
hi toni thanks for following we do love a bit of art deco at ppancake nice items on your website too,"@ArtDecoBiz hi Toni thanks for following, we do love a bit of Art Deco at ppancake..nice items on your website too 👍😍👍",planetpancakes,0.0,2113.0,3363.0,https://pbs.twimg.com/profile_images/572456064419758080/W0XQDSaH_normal.jpeg,118.0,0.0,0.0,1.0,0.0,177.0,2015-01-13 15:15:50,5.575211363232942
thanks for following come down to greenwich market to try our mini pancakes perfect for january blues,"@AwesomeLondon0 thanks for following, come down to Greenwich market to try our mini pancakes..perfect for January blues ☀️🙈😊",planetpancakes,0.0,2113.0,3363.0,https://pbs.twimg.com/profile_images/572456064419758080/W0XQDSaH_normal.jpeg,124.0,4.0,0.0,1.0,1.0,177.0,2015-01-13 13:41:44,5.783459130851169
swing by greenwich market sometime and try our tasty little pancakes,@events_london swing by Greenwich market sometime and try our tasty little pancakes :),planetpancakes,0.0,2113.0,3363.0,https://pbs.twimg.com/profile_images/572456064419758080/W0XQDSaH_normal.jpeg,86.0,0.0,0.0,1.0,0.0,177.0,2015-01-12 19:01:07,4.719754488967221
what an amazing city cadiz is also a blistering 15 degrees today,What an amazing city Cadiz is..also a blistering 15 degrees today! http://t.co/zdoVkgaP4L,planetpancakes,0.0,2113.0,3363.0,https://pbs.twimg.com/profile_images/572456064419758080/W0XQDSaH_normal.jpeg,89.0,0.0,1.0,0.0,0.0,177.0,2015-01-05 22:05:54,4.81289138659111
hmmmm chocolate and mixed nuts gf mini pancakes what a sunday treat,@MisterGreenwich @Coeliac_UK hmmmm chocolate and mixed nuts gf mini pancakes what a Sunday treat @shopgreenwich http://t.co/tjzeVkDZfd,planetpancakes,0.0,2113.0,3363.0,https://pbs.twimg.com/profile_images/572456064419758080/W0XQDSaH_normal.jpeg,134.0,1.0,1.0,3.0,0.0,177.0,2015-01-04 10:38:32,6.082792427545046
its new years eve come down to for some yummy mini pancakes with chocolate,@MisterGreenwich @shopgreenwich @GFSouthLondon its New Years Eve come down to @shopgreenwich for some yummy mini pancakes with chocolate,planetpancakes,0.0,2113.0,3363.0,https://pbs.twimg.com/profile_images/572456064419758080/W0XQDSaH_normal.jpeg,136.0,2.0,0.0,4.0,0.0,177.0,2014-12-31 09:55:34,6.218551300123769
hello sarah thank you very much for coming down to and trying our pancakes and really please you enjoyed them,@sardav64 Hello Sarah thank you very much for coming down to @shopgreenwich and trying our pancakes and really please you enjoyed them.,planetpancakes,0.0,2113.0,3363.0,https://pbs.twimg.com/profile_images/572456064419758080/W0XQDSaH_normal.jpeg,135.0,0.0,0.0,2.0,1.0,177.0,2014-12-31 09:53:29,6.30368006742826
thanks for the follow pop down and try some pancakes if ever in london,@its_love_tym thanks for the follow..pop down and try some pancakes if ever in London :),planetpancakes,0.0,2113.0,3363.0,https://pbs.twimg.com/profile_images/572456064419758080/W0XQDSaH_normal.jpeg,88.0,0.0,0.0,1.0,0.0,177.0,2014-12-29 19:24:28,4.969975755208477
thanks for the follow come down to greenwich market and try our pancakes,@Nshaimusic thanks for the follow come down to Greenwich market and try our pancakes;),planetpancakes,0.0,2113.0,3363.0,https://pbs.twimg.com/profile_images/572456064419758080/W0XQDSaH_normal.jpeg,86.0,0.0,0.0,1.0,0.0,177.0,2014-12-29 15:41:52,4.937226567028309
warm your self up with some yummy pancakes with nice warm chocolate sauce,"@shopgreenwich @MisterGreenwich @GreenwichVisitr 
Warm your self up with some yummy pancakes with nice warm chocolate sauce @shopgreenwich",planetpancakes,0.0,2113.0,3363.0,https://pbs.twimg.com/profile_images/572456064419758080/W0XQDSaH_normal.jpeg,138.0,1.0,0.0,4.0,1.0,177.0,2014-12-28 08:26:41,6.398599582867143
it s xmas eve time for some mini pancakes w lemon n sugar,@GreenwichVisitr @visitlondon @MisterGreenwich it's Xmas eve time for some mini pancakes w Lemon n sugar http://t.co/33qAPHVfEV,planetpancakes,0.0,2113.0,3363.0,https://pbs.twimg.com/profile_images/572456064419758080/W0XQDSaH_normal.jpeg,127.0,2.0,1.0,3.0,0.0,177.0,2014-12-24 11:36:30,6.145907156241593
xmas ham complete,Xmas ham complete!#kickass http://t.co/WC2DwDkrfE,planetpancakes,1.0,2113.0,3363.0,https://pbs.twimg.com/profile_images/572456064419758080/W0XQDSaH_normal.jpeg,49.0,0.0,1.0,0.0,0.0,177.0,2014-12-24 09:32:10,3.996033571293803
thanks for the follow are you london based or operate there,"@CherryBerryCo thanks for the follow, are you London based or operate there?",planetpancakes,0.0,2113.0,3363.0,https://pbs.twimg.com/profile_images/572456064419758080/W0XQDSaH_normal.jpeg,76.0,0.0,0.0,1.0,0.0,177.0,2014-12-23 02:08:42,4.889767040277768
you would be warmly welcomed at the stall anytime shane amp neil,@LostboxUK you would be warmly welcomed at the stall anytime :) Shane &amp; Neil,planetpancakes,0.0,2113.0,3363.0,https://pbs.twimg.com/profile_images/572456064419758080/W0XQDSaH_normal.jpeg,80.0,0.0,0.0,1.0,0.0,177.0,2014-12-22 20:44:07,5.082966979029525
thanks for the follow margaret noce to have support from back home in ni merry xmas,@MargaretDavies4 thanks for the follow Margaret..noce to have support from back home in NI ;)merry Xmas,planetpancakes,0.0,2113.0,3363.0,https://pbs.twimg.com/profile_images/572456064419758080/W0XQDSaH_normal.jpeg,103.0,0.0,0.0,1.0,1.0,177.0,2014-12-22 18:02:50,5.806423748615255
if you re ever lost in london come down to greenwich market and get yourself some freshly made pancakes p,@LostboxUK if you're ever lost in London come down to Greenwich market and get yourself some freshly made pancakes!:p,planetpancakes,0.0,2113.0,3363.0,https://pbs.twimg.com/profile_images/572456064419758080/W0XQDSaH_normal.jpeg,117.0,0.0,0.0,1.0,1.0,177.0,2014-12-22 17:54:29,6.28015224351127
thanks for the follow pop down yo greenwich to see us sometime,"@LondonGigGuide thanks for the follow, pop down yo Greenwich to see us sometime:)",planetpancakes,0.0,2113.0,3363.0,https://pbs.twimg.com/profile_images/572456064419758080/W0XQDSaH_normal.jpeg,81.0,0.0,0.0,1.0,0.0,177.0,2014-12-22 11:46:06,5.210565438667588
home made jams an chutneys a wonderful xmas gift by bonbon cafe,@GreenwichVisitr @TortillasHome home made jams an chutneys a wonderful Xmas gift by BonBon Cafe @shopgreenwich http://t.co/ngWTDdP3Uq,planetpancakes,0.0,2113.0,3363.0,https://pbs.twimg.com/profile_images/572456064419758080/W0XQDSaH_normal.jpeg,133.0,1.0,1.0,3.0,2.0,177.0,2014-12-22 11:20:12,6.684406605724195
hmm mini pancakes chocolate an smarties what more to say,"@MisterGreenwich @visitlondon @VisitBritain
Hmm mini pancakes , chocolate an smarties what more to say @shopgreenwich http://t.co/zJhwiKc8BY",planetpancakes,0.0,2113.0,3363.0,https://pbs.twimg.com/profile_images/572456064419758080/W0XQDSaH_normal.jpeg,140.0,1.0,1.0,4.0,0.0,177.0,2014-12-22 11:14:13,6.871971527567084
thanks cindy glad you loved the strawberry amp white choc combo it s a stall favourite p,"@missiecindz @retailmentoring @shopgreenwich Thanks Cindy, glad you loved the strawberry &amp; white choc combo..it's a stall Favourite :P",planetpancakes,0.0,2113.0,3363.0,https://pbs.twimg.com/profile_images/572456064419758080/W0XQDSaH_normal.jpeg,138.0,2.0,0.0,3.0,2.0,177.0,2014-12-21 21:37:10,6.9358406548065235
yep greenwichmarketldnor also fb and website open over xmas not 25th and new years,@retailmentoring yep:) GreenwichMarketLDNor @shopgreenwich also FB and website..open over Xmas (not 25th) and New Years,planetpancakes,0.0,2113.0,3363.0,https://pbs.twimg.com/profile_images/572456064419758080/W0XQDSaH_normal.jpeg,119.0,1.0,0.0,2.0,1.0,177.0,2014-12-21 21:16:19,6.44435854466638
hello richard now you do so come on down,@retailmentoring @missiecindz @shopgreenwich @TortillasHome @loveurlocalmkt @TurnipsBorough Hello Richard now you do so come on down :-),planetpancakes,0.0,2113.0,3363.0,https://pbs.twimg.com/profile_images/572456064419758080/W0XQDSaH_normal.jpeg,136.0,1.0,0.0,6.0,1.0,177.0,2014-12-21 19:47:03,6.8174770130206355
thanks tf come down to greenwich market today and try our freshly made pancakes and homemade sauces,@TownFish_London thanks TF:) come down to Greenwich Market today and try our freshly made pancakes and homemade sauces!#greenwich,planetpancakes,1.0,2113.0,3363.0,https://pbs.twimg.com/profile_images/572456064419758080/W0XQDSaH_normal.jpeg,129.0,0.0,0.0,1.0,0.0,177.0,2014-12-21 08:15:04,6.950973576641855
thanks for the follow we ll be at greenwich market tomorrow serving up some delicious pancakes,"@London_A2Z thanks for the follow, we'll be at Greenwich market tomorrow serving up some delicious pancakes :)",planetpancakes,0.0,2113.0,3363.0,https://pbs.twimg.com/profile_images/572456064419758080/W0XQDSaH_normal.jpeg,110.0,0.0,0.0,1.0,0.0,177.0,2014-12-20 23:31:48,6.330455781118893
mini pancakes home made salted caramel w honey roasted pecans yum,"@MisterGreenwich @visitlondon mini pancakes,home made salted Caramel w honey roasted pecans yum @shopgreenwich http://t.co/RUf32biekN",planetpancakes,0.0,2113.0,3363.0,https://pbs.twimg.com/profile_images/572456064419758080/W0XQDSaH_normal.jpeg,133.0,1.0,1.0,3.0,0.0,177.0,2014-12-20 13:27:02,6.89850692392227
school break started bring the family on down 2 some yummy mini pancakes gf option,@greenwichmums @visitlondon @VisitBritain school break started bring the family on down 2 @shopgreenwich  some yummy mini pancakes GF option,planetpancakes,0.0,2113.0,3363.0,https://pbs.twimg.com/profile_images/572456064419758080/W0XQDSaH_normal.jpeg,140.0,0.0,0.0,4.0,0.0,177.0,2014-12-19 17:13:19,7.166014074017685
hello gaynor thanks you for retweet hope to you see down at market soon,@VisitBritain @GFSouthLondon @visitlondon Hello Gaynor thanks you for retweet hope to you see down at @shopgreenwich market soon,planetpancakes,0.0,2113.0,3363.0,https://pbs.twimg.com/profile_images/572456064419758080/W0XQDSaH_normal.jpeg,128.0,0.0,0.0,4.0,0.0,177.0,2014-12-19 17:06:18,6.8249026673643804
serving freshly made mini pancakes all day amp all weekend,@EssexFoodfest @Agirlhastoeat @UKKnowledge @LondonPopups @TheFoodCo serving freshly made mini pancakes all day &amp; all weekend @shopgreenwich,planetpancakes,0.0,2113.0,3363.0,https://pbs.twimg.com/profile_images/572456064419758080/W0XQDSaH_normal.jpeg,143.0,0.0,0.0,6.0,1.0,177.0,2014-12-19 14:27:50,7.208291658578766
come and treat your self some gf mini pancakes,@Coeliac_UK @UoNCoeliacSoc @GFSouthLondon @GlutenFreeMrsD @MisterGreenwich come and treat your self some GF mini pancakes @shopgreenwich,planetpancakes,0.0,2113.0,3363.0,https://pbs.twimg.com/profile_images/572456064419758080/W0XQDSaH_normal.jpeg,136.0,1.0,0.0,6.0,0.0,177.0,2014-12-19 10:43:18,7.017807089156493
come on down and treat you self with yummy gf mini pancakes market,@shopgreenwich @visitlondon @VisitBritain @HatchHomerton come on down and treat you self  with yummy GF mini pancakes @shopgreenwich market,planetpancakes,0.0,2113.0,3363.0,https://pbs.twimg.com/profile_images/572456064419758080/W0XQDSaH_normal.jpeg,139.0,0.0,0.0,5.0,1.0,177.0,2014-12-19 10:39:02,7.17869912449632
hey thanks for the follow swing by have some gf pancakes,"@Agirlhastoeat hey thanks for the follow, swing by @shopgreenwich have some GF pancakes",planetpancakes,0.0,2113.0,3363.0,https://pbs.twimg.com/profile_images/572456064419758080/W0XQDSaH_normal.jpeg,87.0,0.0,0.0,2.0,0.0,177.0,2014-12-16 12:56:00,5.78317840193365
hello you are welcome we are in greenwich market greenwich london,"@GlutenFreeMrsD @shopgreenwich hello you are welcome we are in Greenwich market, Greenwich London",planetpancakes,0.0,2113.0,3363.0,https://pbs.twimg.com/profile_images/572456064419758080/W0XQDSaH_normal.jpeg,97.0,0.0,0.0,2.0,0.0,177.0,2014-12-14 20:38:20,6.147709619098137
serving freshly cooked gf mini pancakes with many sauces an toppings,@GFSouthLondon @shopgreenwich @coeliacsocial @UoNCoeliacSoc @Coeliac_UK Serving freshly cooked GF Mini Pancakes with many sauces an toppings,planetpancakes,0.0,2113.0,3363.0,https://pbs.twimg.com/profile_images/572456064419758080/W0XQDSaH_normal.jpeg,140.0,0.0,0.0,5.0,0.0,177.0,2014-12-13 10:20:25,7.357269596597413
come down to greenwich market this weekend and warm yourselves up with some freshly made pancakes,Come down to Greenwich Market this weekend and warm yourselves up with some Freshly made Pancakes!#greenwich http://t.co/M9GueQz0xl,planetpancakes,1.0,2113.0,3363.0,https://pbs.twimg.com/profile_images/572456064419758080/W0XQDSaH_normal.jpeg,131.0,0.0,1.0,0.0,0.0,177.0,2014-12-12 20:19:11,7.365090565508055
hmm must come and get some pancakes with chocolate sauce and homemade fudge,@artisanse10 hmm must come and get some pancakes with chocolate sauce and homemade fudge @shopgreenwich,planetpancakes,0.0,2113.0,3363.0,https://pbs.twimg.com/profile_images/572456064419758080/W0XQDSaH_normal.jpeg,103.0,0.0,0.0,2.0,0.0,177.0,2014-12-12 17:08:19,6.451124411029454
freshly homemade salted carmel sauce with roasted nuts or white chocolate sauce and strawberries which one hmmm,@shopgreenwich Freshly homemade salted Carmel sauce with roasted nuts or white chocolate sauce and strawberries which one?? hmmm,planetpancakes,0.0,2113.0,3363.0,https://pbs.twimg.com/profile_images/572456064419758080/W0XQDSaH_normal.jpeg,128.0,2.0,0.0,1.0,0.0,177.0,2014-12-12 16:58:39,7.277494875150246
aubergine pepper amp mint in homemade sauce topped with toasted almonds heaven,"Aubergine, Pepper &amp; Mint in Homemade sauce topped with toasted Almonds..heaven! http://t.co/8Pvs4SW1k3",planetpancakes,0.0,2113.0,3363.0,https://pbs.twimg.com/profile_images/572456064419758080/W0XQDSaH_normal.jpeg,106.0,0.0,1.0,0.0,0.0,177.0,2014-12-12 16:57:13,6.616207209313552
pulled pork amp homemade tomato base,Pulled pork &amp; homemade Tomato base http://t.co/hpdNztc09R,planetpancakes,0.0,2113.0,3363.0,https://pbs.twimg.com/profile_images/572456064419758080/W0XQDSaH_normal.jpeg,61.0,0.0,1.0,0.0,0.0,177.0,2014-12-12 16:41:45,5.267228678699187
homemade sweet chilli amp thyme perfect for warming those taste buds up,"Homemade Sweet chilli &amp; Thyme, perfect for warming those taste buds up http://t.co/760FmKql2Z",planetpancakes,0.0,2113.0,3363.0,https://pbs.twimg.com/profile_images/572456064419758080/W0XQDSaH_normal.jpeg,97.0,0.0,1.0,0.0,1.0,177.0,2014-12-12 16:37:28,6.383417715590641
thanks for the follow swing by greenwich market for some festive mini pancakes,"@lBreakTheNews thanks for the follow, swing by Greenwich market for some festive mini pancakes :)",planetpancakes,0.0,2113.0,3363.0,https://pbs.twimg.com/profile_images/572456064419758080/W0XQDSaH_normal.jpeg,97.0,0.0,0.0,1.0,1.0,177.0,2014-12-12 16:32:03,6.438925465047413
thanks for the follow great app just downloaded it,"@thedojoapp thanks for the follow, great app just downloaded it",planetpancakes,0.0,2113.0,3363.0,https://pbs.twimg.com/profile_images/572456064419758080/W0XQDSaH_normal.jpeg,63.0,0.0,0.0,1.0,0.0,177.0,2014-12-12 16:13:57,5.449287447893203
thanks for the follow swing by greenwich market london for some festive treats and pancakes of course,"@swdistillery thanks for the follow, swing by Greenwich market London for some festive treats and pancakes of course 😊",planetpancakes,0.0,2113.0,3363.0,https://pbs.twimg.com/profile_images/572456064419758080/W0XQDSaH_normal.jpeg,118.0,0.0,0.0,1.0,0.0,177.0,2014-12-12 16:04:23,7.1472606357675375
thanks for the follow swing by greenwich market london for some pancakes,"@CityIQQuiz thanks for the follow,swing by Greenwich market London for some pancakes :)",planetpancakes,0.0,2113.0,3363.0,https://pbs.twimg.com/profile_images/572456064419758080/W0XQDSaH_normal.jpeg,87.0,0.0,0.0,1.0,0.0,177.0,2014-12-12 16:03:05,6.230247083431404
who wants to stuff there faces with yummy mini pancakes and warm chocolate sauce over the weekend market,@shopgreenwich who wants to stuff there faces with yummy mini pancakes and warm chocolate sauce over the weekend @greenwhich market,planetpancakes,0.0,2113.0,3363.0,https://pbs.twimg.com/profile_images/572456064419758080/W0XQDSaH_normal.jpeg,131.0,2.0,0.0,2.0,0.0,177.0,2014-12-12 14:22:09,7.542916226128989
hey hols great coffee and and yummy cake,@HatchHomerton hey hols great coffee and and yummy cake,planetpancakes,0.0,2113.0,3363.0,https://pbs.twimg.com/profile_images/572456064419758080/W0XQDSaH_normal.jpeg,55.0,0.0,0.0,1.0,0.0,177.0,2014-12-11 20:43:20,5.296882833343788
no worries at all hadn t seen it till recently another time,@cabana_brasil no worries at all hadn't seen it till recently another time :),planetpancakes,0.0,2113.0,3363.0,https://pbs.twimg.com/profile_images/572456064419758080/W0XQDSaH_normal.jpeg,77.0,0.0,0.0,1.0,0.0,177.0,2014-09-24 23:58:35,5.866118051191904
strawberry amp belgian white chocolate,Strawberry &amp; Belgian White chocolate http://t.co/FttFP3Vhzv,planetpancakes,0.0,2113.0,3363.0,https://pbs.twimg.com/profile_images/572456064419758080/W0XQDSaH_normal.jpeg,63.0,0.0,1.0,0.0,0.0,177.0,2014-05-23 21:44:27,5.326859934793227
a cute promise to u hey buddy i ll be your friend till the episode comes in which tom finally eats jerry,"A cute promise to u:

hey buddy :)

""i'll be your friend till the episode comes in which tom finally eats jerry..!!"" ;)*",MuskaanParyani,0.0,4.0,21.0,https://pbs.twimg.com/profile_images/2487844521/nd4tjnjcwgllfq243f85_normal.jpeg,120.0,0.0,0.0,0.0,0.0,2.0,2012-08-10 13:51:35,6.458218174854801
i am incharge of how i feel and today i m choosing happiness,"I am incharge of how I feel and today I’m
choosing happiness..........",MuskaanParyani,0.0,4.0,21.0,https://pbs.twimg.com/profile_images/2487844521/nd4tjnjcwgllfq243f85_normal.jpeg,70.0,0.0,0.0,0.0,1.0,2.0,2012-08-10 05:26:51,4.952540660794055
hey delightful do you want to see my vagina join and find me,"Hey! Delightful💘, do you want to see my vagina? Join and find me
https://t.co/mHOGj1Y4Gk https://t.co/rjzGuheUV6",tootsie1450,0.0,9.0,840.0,https://pbs.twimg.com/profile_images/792969335295897600/0nzy6Tz8_normal.jpg,112.0,0.0,2.0,0.0,0.0,390.0,2016-10-31 12:11:14,3.3222595506460992
