name,tweet_count,tweets,Original_Tweet,hs_cnt,Tweet_Count,Follower_Count,Following_Count,Profile_img_url,Len_tweet,retweet_count,url_cnt,men_cnt,Like_count,Liked_Tweet_Count,Tweet_created_at
WasimJaffer14,962.0,knuckle pain is inevitable sun salutations might help,"Knuckle pain is inevitable, Sun Salutations might help😉 #MIvsSRH #IPL2021 #decode",3.0,962.0,338625.0,319.0,https://pbs.twimg.com/profile_images/1240617174584020995/Bdo721ub_normal.jpg,81.0,192.0,0.0,0.0,9668.0,3497.0,2021-04-17 09:12:58
radiocityindia,57200.0,it s matchday who will be our highest run scorer today we are,"It's Matchday #MiPaltan 🏏
Who will be our highest run scorer today? 😎

We are #OneFamily @mipaltan  💪
.
.
#RadioCity #MumbaiIndians #MIVsSRH #DuniyaHilaDenge https://t.co/f5UiJNwvsw",6.0,57200.0,322801.0,503.0,https://pbs.twimg.com/profile_images/1268188248225935360/E6ouL02x_normal.jpg,181.0,55.0,1.0,1.0,85.0,16421.0,2021-04-17 10:51:15
SeerviBharath,24652.0,most sixes among indians in ipl 217 rohit sharma 216 ms dhoni 201 kohli 198 raina 163 uthappa overall 351 gayle 237 abd 217 rohit,"Most sixes among Indians in IPL:

217* - Rohit Sharma
216 - MS Dhoni
201 - Kohli
198 - Raina
163 - Uthappa

Overall:

351 - Gayle
237 - ABD
217* - Rohit

#IPL2021 #MIvsSRH",2.0,24652.0,54906.0,154.0,https://pbs.twimg.com/profile_images/804763728784699392/fv8B8wa4_normal.jpg,171.0,36.0,0.0,0.0,184.0,53.0,2021-04-17 14:25:11
MadhuRF5151,12984.0,mi will win this easily if they get to 140 mark this tweet,"MI will win this easily if they get to 140+..
Mark this tweet..

#IPL2021 #MIvsSRH",2.0,12984.0,224.0,2041.0,https://pbs.twimg.com/profile_images/1380743623705169920/CbIeAakU_normal.jpg,82.0,0.0,0.0,0.0,0.0,27484.0,2021-04-17 15:27:28
WidesFive,1063.0,t 20 games should not be played on decks like these they kill the time and make game look nothing but boring,"T-20 games should not be played on decks like these.
They kill the time and make game look nothing but boring. 
#IPL2021 #MIvsSRH",2.0,1063.0,92.0,17.0,https://pbs.twimg.com/profile_images/1381524311677169673/yiftJrLx_normal.jpg,129.0,0.0,0.0,0.0,0.0,466.0,2021-04-17 15:27:28
theinswinger45,1372.0,in chennai is slower one is the only key for pacers in death overs,In chennai is slower one is the only key for Pacers in death overs. #MIvsSRH #selectdugout,2.0,1372.0,70.0,1356.0,https://pbs.twimg.com/profile_images/1353239674517549057/Pl-2tc2V_normal.jpg,90.0,0.0,0.0,0.0,0.0,9536.0,2021-04-17 15:27:27
ipraveenkumar28,12460.0,match no 9 a2 rahul chahar,"@ViCustomerCare Match no. 9
A2) Rahul chahar

#FanOfTheMatch #MIvsSRH #IPL2021
@ViCustomerCare",3.0,12460.0,98.0,1633.0,https://pbs.twimg.com/profile_images/1126464479082901504/C49U27uv_normal.jpg,94.0,0.0,0.0,2.0,0.0,5335.0,2021-04-17 15:27:25
Sriram0609,4129.0,last over want to defend 10 runs who will do it,"Last over,Want to defend 10 runs.

Who will do it?

#MIvsSRH #Bhuvi #Nattu",3.0,4129.0,173.0,260.0,https://pbs.twimg.com/profile_images/1281832201873588224/21XZuh7f_normal.jpg,74.0,0.0,0.0,0.0,0.0,36101.0,2021-04-17 15:27:21
Navyavegi,73651.0,virat singh,"@ViCustomerCare Virat Singh

#FanOfTheMatch #MIvsSRH
#IPL2021
@ViCustomerCare",3.0,73651.0,1253.0,3488.0,https://pbs.twimg.com/profile_images/1106036255937257473/EstvMTOM_normal.jpg,77.0,0.0,0.0,2.0,0.0,74900.0,2021-04-17 15:27:17
kya_bataun_bc,4262.0,mi is the new rcb,MI is the new RCB. 😂😂 #MIvsSRH #MI,2.0,4262.0,326.0,343.0,https://pbs.twimg.com/profile_images/1383257020426461185/z0-FoMCw_normal.jpg,34.0,0.0,0.0,0.0,0.0,6394.0,2021-04-17 15:27:17
rantworld101,3232.0,only manish pandey can save this match for us now,"Only MANISH PANDEY can save this match for us now. 
#MIvsSRH",1.0,3232.0,212.0,804.0,https://pbs.twimg.com/profile_images/1381106702104326145/nXYPZpaK_normal.jpg,60.0,0.0,0.0,0.0,0.0,529.0,2021-04-17 15:27:13
sheeluneelu,9246.0,balls waste karva lo sabse,"balls waste karva lo sabse😑
#IPL2021 
#MumbaiIndians
#MIvsSRH",3.0,9246.0,77.0,90.0,https://pbs.twimg.com/profile_images/1375175038710677504/yOmSf4r0_normal.jpg,61.0,0.0,0.0,0.0,0.0,19365.0,2021-04-17 15:27:07
iEatCricket,28701.0,once used to be king at death overs now rare to get even a single wicket,"Once used to be King at death overs, now rare to get even a single wicket.

#MIvsSRH",1.0,28701.0,6647.0,275.0,https://pbs.twimg.com/profile_images/1380413454230593542/Rqx4sQww_normal.jpg,84.0,0.0,0.0,0.0,0.0,12171.0,2021-04-17 15:27:07
VilasGhodechor,3169.0,can you believe it a player in scores 12 21 while batting first that with 7 wicket in hand,"@IPL @Mujeeb_R88 Can you believe it a player in #T20Cricket scores 12(21), while batting first, that with 7 wicket in hand.
😄😄👏
#MIvsSRH #Mi #IPL2021 #IPL",5.0,3169.0,45.0,38.0,https://pbs.twimg.com/profile_images/1032991904210841600/8djjuNTu_normal.jpg,154.0,0.0,0.0,2.0,0.0,8419.0,2021-04-17 15:27:03
KhicharNihit,5067.0,super storer of energy while watching such toofani matches simply lovin it,"Super storer of energy while watching such toofani matches. Simply
lovin it! #MIvsSRH #TasteTheThunder",2.0,5067.0,1184.0,973.0,https://pbs.twimg.com/profile_images/1369911501075615751/OlTrNPFe_normal.jpg,102.0,0.0,0.0,0.0,0.0,436.0,2021-04-17 15:26:57
shirish75120513,136.0,cpi party in kerala declares john brittas and sivadasan v as the candidates for rajya sabha elections,"CPI party in Kerala declares John Brittas and Sivadasan V as the candidates for Rajya Sabha elections.
#Kerala #CPI #JohnBrittas #VSivadasan #RajyaSabha #Elections #SonuSood #CancelAllBoardExams #ModiMadeDisaster #TirupatiByElection #SecondCOVIDWave #RIPVivekSir #MIvsSRH https://t.co/W02cP1t3au",13.0,136.0,4.0,10.0,https://pbs.twimg.com/profile_images/1366992978271637507/sKmJpVbl_normal.jpg,295.0,2.0,1.0,0.0,1.0,149.0,2021-04-17 09:12:25
shirish75120513,136.0,famous tamil actor vivek passes away due to cardiac arrest,"Famous Tamil actor Vivek passes away due to cardiac arrest.
#Kollywood #TamilActor #Vivek #Passed #CardiacArrest #SonuSood #CancelAllBoardExams #ModiMadeDisaster #TirupatiByElection #SecondCOVIDWave #RIPVivekSir #MIvsSRH #BoycottBollywood #GetWellSoonVivekSir https://t.co/2oqYhakZKz",14.0,136.0,4.0,10.0,https://pbs.twimg.com/profile_images/1366992978271637507/sKmJpVbl_normal.jpg,283.0,4.0,1.0,0.0,4.0,149.0,2021-04-17 09:11:34
TVSEurogrip,1061.0,can you predict today s match tell us in the comments,"Can you predict today's match? Tell us in the comments.

#TheSpecialistLeague  #IPL2021 #TVSEurogrip #mivssrh🏆 https://t.co/n4k8ZvUdP5",4.0,1061.0,2895.0,0.0,https://pbs.twimg.com/profile_images/1217089677091463168/CCEvJdYK_normal.jpg,134.0,23.0,1.0,0.0,36.0,15.0,2021-04-17 09:11:06
games_aio,48.0,it s saturday and mumbai vs hyderabad tell us whom you are supporting today rohit sharma vs david warner two power hitters on the field today hurry up and make your fantasy team now on aio app link signup amp get a 100 welcome bonus,"It's Saturday and Mumbai vs Hyderabad 
Tell us whom you are supporting today.
Rohit Sharma vs David Warner two power hitters on the field today 💯
Hurry up and make your fantasy team now on Aio app 🏏🦁
Link : https://t.co/HgvIpRXXMj
Signup &amp; get a ₹100 welcome bonus! 
#MIvsSRH https://t.co/TNiXTxFfSB",1.0,48.0,254.0,64.0,https://pbs.twimg.com/profile_images/1383157055431712768/fHC4HyKV_normal.jpg,303.0,2.0,2.0,0.0,4.0,15.0,2021-04-17 09:10:48
Aditya84669377,5.0,if srh won today i want vadapav because today hitman david warner shows his hitting class again with more than 2 sixes and others will take wicket,"If SRH won today i want VADAPAV
Because Today Hitman David Warner shows his hitting class again with more than 2 sixes and others will take wicket
#SwiggyForkcast 
@swiggy_in

@Swiggycares

 #swiggy
#MIvsSRH #VivoIPL2021 https://t.co/3kBLnLrfPX",4.0,5.0,2.0,3.0,https://abs.twimg.com/sticky/default_profile_images/default_profile_normal.png,244.0,3.0,1.0,2.0,3.0,5.0,2021-04-17 09:09:51
AkhilaG55105185,145.0,amartya sen has given his opinion saying that center has given a lot of importance to the west bengal polls when it wasn t that crucial compared to the covid situation,Amartya Sen has given his opinion saying that center has given a lot of importance to the West Bengal polls when it wasn't that crucial compared to the Covid situation.#WestBengal #Polls #Covid #AmartyaSen #SonuSood #CancelAllBoardExams #MIvsSRH  #SecondCOVIDWave #RIPVivekSir https://t.co/dLwP3p8m2G,9.0,145.0,8.0,24.0,https://pbs.twimg.com/profile_images/1366996284662419460/9mP3BxI7_normal.jpg,300.0,1.0,1.0,0.0,2.0,157.0,2021-04-17 09:09:16
harpreethdu,21540.0,hopefully would not make her cry tonight with their irrational performance on the field we would like to see her smiling not like this,"Hopefully, #SRH would not make her cry tonight with their irrational performance on the field 
We would like to see her smiling not like this  
@VVSLaxman281
@SunRisers
🥺🥺🥺

#SRHvsMI 
#MIvsSRH https://t.co/txEm838Ipf",3.0,21540.0,450.0,564.0,https://pbs.twimg.com/profile_images/1380048954516119552/AOmWzQqv_normal.jpg,216.0,0.0,1.0,2.0,5.0,14583.0,2021-04-17 09:08:49
Chandduuuu,9973.0,templates for todays match,"Templates for todays match
#SRH #MI #MIvsSRH https://t.co/6KE6clipZ4",3.0,9973.0,581.0,756.0,https://pbs.twimg.com/profile_images/1381568507360333827/GKa_64ny_normal.jpg,68.0,13.0,1.0,0.0,56.0,32057.0,2021-04-17 09:08:47
HetalWadhan,10090.0,dear team mumbai indians tagging,"@PrimeCaptain1 Dear Team 
@PrimeCaptain1  

💙 MUMBAI INDIANS

#MIvsSRH
#IndianT20League #gadgetcontest #IPL2021 #fantasycricket #PCPL #MumbaiIndians #OrangeArmy

TAGGING 
@WadhanN  
@mehra_pammi  
@HridyaW  
@skalsi394 
@VadhanNaveen",8.0,10090.0,302.0,904.0,https://pbs.twimg.com/profile_images/1307212045826363392/qIMMetmo_normal.jpg,233.0,0.0,0.0,7.0,0.0,13656.0,2021-04-17 09:08:34
Nivas12112001,4760.0,sunrisers hyderabad will win tagging,"@DealSquad_ Sunrisers Hyderabad will win

#VIVOIPL #MIvSRH #SRHvMI #MIvsSRH #SRHvsMI #MI #SRH #MumbaiIndians #SunRisersHyderabad #OrangeOrNothing 
#OrangeArmy #OneFamily 

Tagging:
@porwal_sarika 
@Ravicha56493252 
@G_Manojkumar1 
@ChennupatiVivek 
@ImMani05046985",12.0,4760.0,38.0,287.0,https://pbs.twimg.com/profile_images/1368205970497695751/_oFNQm2E_normal.jpg,264.0,0.0,0.0,6.0,0.0,10421.0,2021-04-17 09:08:19
everlast_gmr,24.0,rivalry be like,@Shrutika_45_ @LoyalMIfan #MIvsSRH rivalry be like https://t.co/aI42szj4xY,1.0,24.0,6.0,35.0,https://pbs.twimg.com/profile_images/1383289400788873224/l2jmdHwF_normal.jpg,74.0,0.0,1.0,2.0,0.0,68.0,2021-04-17 09:07:22
reliancejio,3975.0,guess the players p s hint in the video comment the emoji for the rest of the below,"🌞⚡💥
Guess the @mipaltan players! 
P.S. Hint in the video 🤭

Comment the emoji for the rest of the #MIPaltan below! 👇

#MIvsSRH #Paltan #MumbaiIndians #JioFiber #JioDigitalLife #CricketFever #Jio #T20Cricket #OneFamily https://t.co/6nEg03YnCT",10.0,3975.0,690846.0,1.0,https://pbs.twimg.com/profile_images/778230818003034113/2CwJJaWl_normal.jpg,241.0,1.0,1.0,1.0,46.0,106.0,2021-04-17 09:06:48
AkhilaG55105185,145.0,a bjp leader stated that people are intentionally ignoring maharashtra cm s restrictions on covid,"A BJP leader stated that people are intentionally ignoring Maharashtra CM's restrictions on Covid.
#BJPLeader #CM #Maharashtra #Restrictions #COVID19 #SonuSood #CancelAllBoardExams #ModiMadeDisaster #TirupatiByElection #SecondCOVIDWave #RIPVivekSir #MIvsSRH #BoycottBollywood https://t.co/TuMt6vv1Z5",13.0,145.0,8.0,24.0,https://pbs.twimg.com/profile_images/1366996284662419460/9mP3BxI7_normal.jpg,299.0,1.0,1.0,0.0,1.0,157.0,2021-04-17 09:06:23
Aditya1984c,1614.0,if mumbai indians won today i want vadapav because today hitman rohit sharma shows his hitting class again with more than 2 sixes and rahul chahar will take more than one wicket,"@swiggy_in If MUMBAI INDIANS won today i want VADAPAV
Because Today Hitman Rohit Sharma shows his hitting class again with more than 2 sixes and Rahul Chahar will take more than one wicket
#SwiggyForkcast 
@swiggy_in

@Swiggycares

 #swiggy
#MIvsSRH #VivoIPL2021",4.0,1614.0,6.0,36.0,https://pbs.twimg.com/profile_images/1355893035893018624/VSsJq6V3_normal.jpg,262.0,3.0,0.0,3.0,3.0,1001.0,2021-04-17 09:05:18
AkhilaG55105185,145.0,ys sharmila s hunger strike in telangana had been disrupted,"YS Sharmila's hunger strike in Telangana had been disrupted.
#YSsharmila #Hunger #Strike #Telangana #SonuSood #CancelAllBoardExams #ModiMadeDisaster #TirupatiByElection #SecondCOVIDWave #RIPVivekSir #MIvsSRH #BoycottBollywood #GetWellSoon https://t.co/jOJbqAyDJr",13.0,145.0,8.0,24.0,https://pbs.twimg.com/profile_images/1366996284662419460/9mP3BxI7_normal.jpg,262.0,0.0,1.0,0.0,1.0,157.0,2021-04-17 09:04:56
Sakthi4578,2695.0,today match mumbaiindians srh,Today match MumbaiIndians 🆚 SRH  #MIvsSRH,1.0,2695.0,16.0,134.0,https://pbs.twimg.com/profile_images/1363019803661791233/30QnqfYc_normal.jpg,41.0,1.0,0.0,0.0,1.0,4636.0,2021-04-17 09:04:43
KunalPa55271476,5400.0,yes join,"@PINCInsurance Yes 

#PlayWithPINC #PINCInsurance #ContestAlert #MIVsSRH
@PINCInsurance 

Join 
@GoldQueenie4 @PoojaChouhan22 @imPalak18 @Smiley_Bharati @mysterioussu  @eyedipu @AvanParihar  @manikumar4144 @Dazzlingcutie1 @kusumsolanki17 @abha_mishra19 @amisha288 @SanjayJ45449140",4.0,5400.0,114.0,1467.0,https://pbs.twimg.com/profile_images/1383346407801647104/D5jSVPAy_normal.jpg,280.0,2.0,0.0,15.0,4.0,4174.0,2021-04-17 09:04:35
AkhilaG55105185,145.0,sonu sood tests positive for covid 19 and is under home quarantine,"Sonu Sood tests positive for Covid-19 and is under home quarantine.
#Actor #SonuSood #Positive #COVID19 #Quarantine #SonuSood #CancelAllBoardExams #ModiMadeDisaster #TirupatiByElection #SecondCOVIDWave #RIPVivekSir #MIvsSRH #BoycottBollywood #GetWellSoon https://t.co/RgWP4BLNUY",14.0,145.0,8.0,24.0,https://pbs.twimg.com/profile_images/1366996284662419460/9mP3BxI7_normal.jpg,278.0,0.0,1.0,0.0,2.0,157.0,2021-04-17 09:04:02
cricnerds,2067.0,mi vs srh ipl 2021 match prediction match prediction,"MI vs SRH - IPL 2021 Match Prediction
Match Prediction 👇👇
https://t.co/w82reCa8lU

#MI #SRH #IPL2021 #MIvsSRH",4.0,2067.0,558.0,205.0,https://pbs.twimg.com/profile_images/1220637140071006208/3vepr_ci_normal.jpg,109.0,0.0,1.0,0.0,2.0,129.0,2021-04-17 09:03:12
CricXtasy,9445.0,rashid khan has an economy rate of 5 40 against mi can he be the game changer tonight,"Rashid Khan has an economy rate of 5.40 against MI. Can he be the game changer tonight?

#MIvsSRH #IPL2021 https://t.co/pXRFgVHpzG",2.0,9445.0,3208.0,369.0,https://pbs.twimg.com/profile_images/1376793380693241859/Tr1WVKLX_normal.jpg,130.0,1.0,1.0,0.0,7.0,3287.0,2021-04-17 09:02:38
Usha_Srivastava,87764.0,mumbai indians will win tonight,"@DealSquad_ Mumbai Indians will win tonight 

#IPL2021 
#VIVOIPL #MIvSRH #SRHvMI #MIvsSRH #SRHvsMI #MI #SRH #MumbaiIndians #SunRisersHyderabad #OrangeOrNothing #OrangeArmy #OneFamily 
@DealSquad_",13.0,87764.0,811.0,686.0,https://pbs.twimg.com/profile_images/1178503252800761856/UjtcTrZE_normal.jpg,195.0,0.0,0.0,2.0,0.0,1229.0,2021-04-17 09:01:20
MyDream11Expert,754.0,mi vs srh match preview and playing 11 like and retweet please,"MI VS SRH Match Preview and playing 11
https://t.co/Mb9yQBLneW

*Like and Retweet Please*
#IPL2021 #Dream11 #DCvsRR #SRHvsMI #MIvSRH #MIvsSRH #MI #SRH #CSKvPBKS #BCCI #Cricket #AskStar #PBKSvCSK #SRHvMI",14.0,754.0,3698.0,1.0,https://pbs.twimg.com/profile_images/1270587170231746560/8SxtdjOS_normal.jpg,202.0,0.0,1.0,0.0,0.0,512.0,2021-04-17 09:01:10
mytentaran,73682.0,david warner,"David Warner 🔥

#cricket #IPL #RohitSharma #DavidWarner #SRHvMI #MIvSRH #SRHvsMI #MIvsSRH #MI #SRH #Ipllovers  #cricketmerijaan #IPL2021 https://t.co/jybhOVjIfK",13.0,73682.0,1799.0,755.0,https://pbs.twimg.com/profile_images/1310948244885835776/s2_c5iAo_normal.jpg,160.0,0.0,1.0,0.0,1.0,42766.0,2021-04-17 09:00:25
konda4568,79.0,today s prediction for mivssrh rashid khan 3 wickets bhuvi 2 wickets boult 2 wickets bumrah 3 wickets rohith sharma 18 runs decock 54 runs surya 23 runs ishan kishan 32 runs hp 24runs warner 30 manish 50 bairstow 48 srh will win today,"Today's prediction for mivssrh #MIvsSRH 
.Rashid Khan -3 wickets
.Bhuvi - 2 wickets
.Boult - 2 wickets
.bumrah-3 wickets 
. Rohith Sharma -18 runs 
.decock -54 runs
.surya - 23 runs 
.Ishan kishan -32 runs
.hp-24runs
.warner-30
.manish-50
. Bairstow-48
SRH WILL WIN TODAY 🧡",1.0,79.0,32.0,86.0,https://pbs.twimg.com/profile_images/1330909911153164289/U7tL3w1O_normal.jpg,273.0,0.0,0.0,0.0,0.0,519.0,2021-04-17 08:58:56
Mehboob72740376,30.0,sir players to watch for tonight,@WasimJaffer14 sir players to watch for tonight #MIvsSRH #ipl2021,2.0,30.0,2.0,125.0,https://abs.twimg.com/sticky/default_profile_images/default_profile_normal.png,65.0,0.0,0.0,1.0,1.0,19.0,2021-04-17 08:58:29
predict_22,16862.0,fantasy picks for today s match apr 17 9th match mumbai indians vs sunrisers hyderabad ma chidambaram stadium 7 30 pm for the best match predictions click,"Fantasy picks for today's match 

🔥 Apr 17
🔥 9th Match #IPL2021 

Mumbai Indians vs Sunrisers Hyderabad 
@ MA Chidambaram Stadium

7:30 pm

For the best match predictions
Click ⤵ ⤵ 
https://t.co/WIsoTIZR34

#MIvsSRH #SRH  #IPL #fantasy #Fantia #VIVOIPL #DelhiCapitals #MIvSRH https://t.co/Rtblo9alup",9.0,16862.0,597.0,197.0,https://pbs.twimg.com/profile_images/1120380926754742274/8D4GG3H7_normal.png,299.0,0.0,2.0,1.0,1.0,692.0,2021-04-17 08:57:48
swathig86783213,247.0,famous tamil actor vivek passes away due to cardiac arrest,"Famous Tamil actor Vivek passes away due to cardiac arrest.
#Kollywood #TamilActor #Vivek #Passed #CardiacArrest #SonuSood #CancelAllBoardExams #ModiMadeDisaster #TirupatiByElection #SecondCOVIDWave #RIPVivekSir #MIvsSRH #BoycottBollywood https://t.co/vjzsMRGXqz",13.0,247.0,11.0,85.0,https://pbs.twimg.com/profile_images/1366058985497878537/VTt4VrQr_normal.jpg,262.0,1.0,1.0,0.0,2.0,547.0,2021-04-17 08:56:04
swathig86783213,247.0,chidambaram expressed his displeasure on a union minister who called kerala cm a covidiot,"Chidambaram expressed his displeasure on a union minister who called Kerala CM a Covidiot.
#Chidambaram #Unionminister #Kerala #CM #Covidiot #SonuSood #CancelAllBoardExams #ModiMadeDisaster #TirupatiByElection #SecondCOVIDWave #RIPVivekSir #MIvsSRH #BoycottBollywood https://t.co/oPWgWc6nhe",13.0,247.0,11.0,85.0,https://pbs.twimg.com/profile_images/1366058985497878537/VTt4VrQr_normal.jpg,290.0,2.0,1.0,0.0,2.0,547.0,2021-04-17 08:55:44
Mrlavi14,17.0,according to me would do 3 4 changes in today s match after failing to chase 149 runs against let s see what would be the changes tonight who will be win tonight,"According to me #SRH would do 3-4 changes in today's match after failing to chase 149 runs against #RCB .

let's see what would be the changes tonight'.

Who will be win tonight 😑

#SRH #MI #MIvSRH #IPL2021 
 #MIvsSRH",7.0,17.0,2.0,53.0,https://pbs.twimg.com/profile_images/1382417410242740224/KLAVfm66_normal.jpg,217.0,1.0,0.0,0.0,3.0,11.0,2021-04-17 08:55:36
Alkajain888,5524.0,team bonnell spring tagging,"@KingKoil_India Team Bonnell Spring 

#SleepBetterWithKingKoil #KingKoilIndia #kingkoil #KingKoilMattress #MIvsSRH #mivssrh2021 https://t.co/SlKOgpHn4i
 @KingKoil_India 
      Tagging
@sweetuk81 @JeetuMaheta @sd12dec @seemaraibagi09 @tanya_motwani",6.0,5524.0,183.0,671.0,https://pbs.twimg.com/profile_images/1296889712615895040/-4KhL3VA_normal.jpg,247.0,0.0,1.0,7.0,1.0,3093.0,2021-04-17 08:54:46
league11_in,4371.0,who will hit most fours today david warner rishabh pant suryakumar yadav manish pandey,"Who will hit most fours today?

🟢 David Warner
🟡 Rishabh Pant
🔵 Suryakumar Yadav
🟠 Manish Pandey

#MIvsSRH #SRHvsMI #IPL2021 #SRH #MI #IPLWITHLEAGUE11 #league11 #IPL #OrangeArmy #MumbaiIndians",10.0,4371.0,580.0,743.0,https://pbs.twimg.com/profile_images/1362658928211894274/D891p6eE_normal.jpg,192.0,0.0,0.0,0.0,4.0,939.0,2021-04-17 08:54:41
ayushi____,27920.0,all the best ro just want you to do good today please fulfill this wish of mine and all the best hoping for a win,"All the best Ro💙🤞 @ImRo45 
Just want you to do good today

Please fulfill this wish of mine🤞🤞💙

And all the best @mipaltan 
Hoping for a win💙
#MIvsSRH https://t.co/Piy2fbzv7g",1.0,27920.0,851.0,222.0,https://pbs.twimg.com/profile_images/1376611625243877378/a2nhtISD_normal.jpg,174.0,8.0,1.0,2.0,47.0,34887.0,2021-04-17 08:53:24
Mrlavi14,17.0,pridiction by betways whats you think is it fine,"Pridiction by Betways 😮
Whats you think ? Is it fine ?

 #MIvsSRH https://t.co/a05jK5z3R3",1.0,17.0,2.0,53.0,https://pbs.twimg.com/profile_images/1382417410242740224/KLAVfm66_normal.jpg,89.0,0.0,1.0,0.0,1.0,11.0,2021-04-17 08:53:12
TentaranSports,28240.0,check out all the interesting sports news of this week 12 to 17 april 2021,"Check out all the Interesting Sports News of this week 12 to 17 April 2021

https://t.co/znnRGXZFFY

#IPL2021 #MIvsSRH #MIvSRH #SRHvMI #SRHvsMI #IPL #MumbaiIndians #MI #OneFamily #SunrisersHyderabad #OrangeArmy #SRH #OrangeOrNothing #DavidWarner #RohitSharma #TentaranSports",16.0,28240.0,1089.0,646.0,https://pbs.twimg.com/profile_images/1088038065598164994/wQxPihWz_normal.jpg,274.0,1.0,1.0,0.0,1.0,7636.0,2021-04-17 08:52:30
Navyavegi,73651.0,mumbai indians will win,"@DealSquad_ Mumbai Indians will win

#VIVOIPL #MIvSRH #SRHvMI #MIvsSRH #SRHvsMI #MI
#SRH
#MumbaiIndians
#SunRisersHyderabad #OrangeOrNothing
  
@godsowntalk
@coolkishore59
@O___DayaL
@KirtiCh1
@gurgaon_rangers
@ramprasad43
@ShainaArora1
@KpParmar98
@Mr_YashG
@saching33833053",10.0,73651.0,1253.0,3488.0,https://pbs.twimg.com/profile_images/1106036255937257473/EstvMTOM_normal.jpg,275.0,0.0,0.0,11.0,0.0,74900.0,2021-04-17 08:52:07
Mrlavi14,17.0,sunrises hydrabad is going to win the toss and opt to bat first,"#MIvsSRH

Sunrises Hydrabad is going to win the toss and opt to Bat first ✔ https://t.co/gmfKJOH1Xm",1.0,17.0,2.0,53.0,https://pbs.twimg.com/profile_images/1382417410242740224/KLAVfm66_normal.jpg,99.0,0.0,1.0,0.0,0.0,11.0,2021-04-17 08:51:56
siddharthpabbi3,859.0,who is going to win tonight match 9,"Who is Going to win Tonight???
#MIvsSRH  #SRH  #MI
#IPL2021 
Match 9",4.0,859.0,20.0,54.0,https://pbs.twimg.com/profile_images/1371778226977087491/DelKb24I_normal.jpg,68.0,0.0,0.0,0.0,1.0,9388.0,2021-04-17 08:51:21
HotstarSG,715.0,mumbai ki paltan faces a tough challenge tonight against the hyderabadi heroes don t miss out on this thrilling encounter watch it live and exclusive on hotstar 10 pm onwards,"Mumbai ki Paltan faces a tough challenge tonight against the Hyderabadi heroes! Don’t miss out on this thrilling encounter!

Watch it, live and exclusive on Hotstar, 10 PM onwards!

#MIvsSRH #VIVOIPL2021 #Hotstar #Singapore @mipaltan @SunRisers https://t.co/szYPir5zhh",4.0,715.0,494.0,0.0,https://pbs.twimg.com/profile_images/1364854099921920005/uu5Ise3b_normal.jpg,268.0,0.0,1.0,2.0,0.0,19.0,2021-04-17 08:51:08
CobraKaaii,13574.0,mumbai indians for the win join,"@PrimeCaptain1 Mumbai Indians for the win
@PrimeCaptain1 #MIvsSRH #IndianT20League #gadgetcontest #IPL2021 #fantasycricket #PCPL #MumbaiIndians #OrangeArmy 
Join
@satyapaljain_86 @gopalsanthosh0 @bp051t1ve_pr1ya @Dr_ArchnaK @abhishekkkk_14 @YoursPratik_ @kirtiratiya @trilokchand_ @sanket17_ https://t.co/WT9Jpt5UOk",8.0,13574.0,3563.0,3917.0,https://pbs.twimg.com/profile_images/1193093175914553344/UZGxWWkr_normal.jpg,315.0,0.0,1.0,11.0,2.0,75926.0,2021-04-17 08:49:53
SanjayC83102740,5618.0,sunrisers hyderabad will win,"@DealSquad_ Sunrisers Hyderabad will win

#VIVOIPL #MIvSRH #SRHvMI #MIvsSRH #SRHvsMI #MI  #SRH  #MumbaiIndians  #SunRisersHyderabad #OrangeOrNothing  

@porwal_sarika 
@PinkyDholakia 
@HarshitaC44 
@manikumar4144 
@VijayKumar1602",10.0,5618.0,80.0,833.0,https://pbs.twimg.com/profile_images/1362808312736047105/U92Q6FDQ_normal.jpg,229.0,0.0,0.0,6.0,1.0,2978.0,2021-04-17 08:49:32
iShivani_Shukla,1044.0,michael vaughan slams bcci for not promoting csk star in contract list,"Michael Vaughan Slams BCCI For Not Promoting CSK Star In Contract List

#VIVOIPL #Vaughan #IPL #CSK #MIvsSRH #SRHvsMI #Cricket

https://t.co/et1OlqjVJj",7.0,1044.0,285.0,31.0,https://pbs.twimg.com/profile_images/1381564532884127746/Oj41V_-X_normal.jpg,151.0,0.0,1.0,0.0,4.0,2179.0,2021-04-17 08:49:19
patel_jaylo,8.0,hitman vs warner matchday i supposed be mumbai indians,"HITMAN VS WARNER 
MATCHDAY
I SUPPOSED BE MUMBAI INDIANS 💙🏆 
@mipaltan @SunRisers
#VIVOIPL #TEAM_HAI_TO_MAJA_HAI
#MIVsSRH https://t.co/ajdvzuQmNi",3.0,8.0,1.0,54.0,https://pbs.twimg.com/profile_images/1383333141138460672/AHXT6V91_normal.jpg,144.0,0.0,1.0,2.0,0.0,14.0,2021-04-17 08:48:43
jinijony08,22268.0,wrong un option a qdk has four 50 scores playing for mi against srh join,"@UshaPlay @UshaIntl @mipaltan ➡ Wrong'Un❌

Option A) QDK HAS FOUR 50+ SCORES PLAYING FOR MI AGAINST SRH✔

#OneFamily #MumbaiIndians #UshaPlay #UshaInternational #IPL2021 #MI #MIvsSRH 

Join, 
@yashgandhi66 
@iemNishant 
@mysterioussu 
@imPalak18 
@harshj5765",7.0,22268.0,1050.0,3913.0,https://pbs.twimg.com/profile_images/1381938801640009733/-J4fA8-n_normal.jpg,258.0,1.0,0.0,8.0,3.0,18652.0,2021-04-17 08:46:29
iamsaiteja03,2468.0,wake up man its 2 15,"@Karthickmurugam @CricCrazyJohns Wake up man....its 2:15😂😂
#MIvsSRH #IPL #SRH",3.0,2468.0,23.0,188.0,https://pbs.twimg.com/profile_images/1380867646586032133/q-bpAmIi_normal.jpg,77.0,0.0,0.0,2.0,0.0,13551.0,2021-04-17 08:46:02
BeatCrick,294.0,mi vs srh match preview predicted playing 11 win percentage and head to head comparison,"MI vs SRH: Match Preview, Predicted Playing 11, Win Percentage and Head-to-Head comparison

https://t.co/bOwWp41EKP

#MIvSRH #MIvSRH #MIvsSRH #SRHvsMI #SRH #MI #MumbaiIndians #SunrisersHyderabad #MIPaltan #IPL2021 #IPL #IPLWin #IPLSchedule #BCCI",14.0,294.0,4.0,69.0,https://pbs.twimg.com/profile_images/1338321696986603520/QqinWKCa_normal.jpg,245.0,0.0,1.0,0.0,1.0,2.0,2021-04-17 08:45:21
fieldercriketer,246.0,today s match srh can win take all spinners plus bumrha bhuvi suryakumar yadav ishan kishan jonny bairstow can play well today no need to take pollard hardik holder de kock,"Today's match srh can win  
Take all spinners , plus bumrha,bhuvi 

Suryakumar yadav, ishan kishan , jonny Bairstow can play well today ....no need to take pollard,hardik,holder ,de kock 
#SRHvsMI #MIvsSRH #fantasy #Dream11 #playing11",5.0,246.0,6.0,68.0,https://pbs.twimg.com/profile_images/1381550071745966083/2JibNLvM_normal.jpg,234.0,0.0,0.0,0.0,0.0,669.0,2021-04-17 08:44:58
Harmonicstock,1012.0,kumbhkarna of will be in his usual laidback action and likely to play for his interests without any relevance to team s situation or requirements,"#Manish Kumbhkarna #Pandey of @SunRisers will be in his usual laidback action and likely to play for his #selfish interests without any relevance to team's situation or requirements.

#MIvSRH #MIvsSRH #IPL2021 #IPL https://t.co/YNrdTU3zg7",7.0,1012.0,192.0,28.0,https://pbs.twimg.com/profile_images/1141008590771109893/w9AzdHIK_normal.jpg,238.0,0.0,1.0,1.0,0.0,2303.0,2021-04-17 08:44:02
Ruchika4786,9174.0,hyderabad miyas join,"@RevintoPvt Hyderabad Miyas

#REVINTOPREMIERLEAGUE  #RohitSharma #MIvsSRH #RIPVivekSir #COVID19ON #RPL #BigWin #Win #IPL #Cricket 

Join @RuchikaJain89 @Soni20k @Raghavendra0703  @montu13713 @sweetynsalt",10.0,9174.0,177.0,908.0,https://pbs.twimg.com/profile_images/1341220116181131265/P9Rkaxt3_normal.jpg,203.0,0.0,0.0,6.0,2.0,9670.0,2021-04-17 08:43:07
montu13713,53392.0,amchi mumbai tagging,"@RevintoPvt Amchi Mumbai

#REVINTOPREMIERLEAGUE
#RohitSharma #MIvsSRH #RPL #Contest #IPL #Cricket
@RevintoPvt 

Tagging 💠@Ruchikajain89 💠@GauravP26479152   💠@Raghavendra0703 💠@Sweetynsalt  💠@Soni20k",7.0,53392.0,1375.0,4982.0,https://pbs.twimg.com/profile_images/1347854385263517696/4LcWdQ-6_normal.jpg,198.0,0.0,0.0,7.0,0.0,16245.0,2021-04-17 08:42:52
_C_H_A_R_M_I__,1107.0,we want williamson in team aaj nhi lia to sare matches haroge tum log,"@SunRisers We Want Williamson in Team.😭😭

Aaj nhi lia to sare matches haroge tum log👎👎

#MIvsSRH",1.0,1107.0,260.0,212.0,https://pbs.twimg.com/profile_images/1380082261106642946/E_TgKRD7_normal.jpg,96.0,0.0,0.0,1.0,0.0,1448.0,2021-04-17 08:42:48
malikprediction,654.0,open post mumbai indians vs sunrisers hyderabad 9th match mi vs sr,"OPEN POST | Mumbai Indians vs Sunrisers Hyderabad | 9TH Match | MI VS SR... https://t.co/E5nCGYUWfR 
#9THMATCH
#MumbaiIndiansvsSunrisersHyderabad
#MIVSSRH
#IPL
#IndianPremierLeague
#IPL2021 
#MumbaiIndians 
#SunrisersHyderabad",8.0,654.0,247.0,21.0,https://pbs.twimg.com/profile_images/1194555212846911488/Dw4XEZfa_normal.jpg,226.0,0.0,1.0,0.0,0.0,13.0,2021-04-17 08:42:07
Vinayak__45,5085.0,get ready for b today b bumrah b boult b bowled,"Get Ready for B today
B = Bumrah
B= Boult
B= Bowled

#MIvsSRH #bumrah https://t.co/vQreXVVjqw",2.0,5085.0,1009.0,1057.0,https://pbs.twimg.com/profile_images/1383390772683182080/hi5Yp8wj_normal.jpg,93.0,12.0,1.0,0.0,62.0,5903.0,2021-04-17 08:40:46
ProudMomOfADall,5006.0,no join,"@PINCInsurance No

#PlayWithPINC #PINCInsurance #ContestAlert #MIVsSRH
Join
@CobraKaaii @Geeta5122005 @Sangeetha0505  @kirtiratiya @aakash_beast786",4.0,5006.0,408.0,2330.0,https://pbs.twimg.com/profile_images/1320710885543821313/Z1VswtZQ_normal.jpg,147.0,0.0,0.0,6.0,2.0,14137.0,2021-04-17 08:37:12
ReadScoops,25551.0,suryakumar yadav scores so far this season 31 and 56 mi vs srh fantasy preview,"Suryakumar Yadav scores so far this season – 31 and 56

MI vs SRH fantasy preview: https://t.co/9zdVgEIOZy

#Cricket #FantasyCricket #Dream11 #Dream11Team #Dream11Tips #Dream11IP #Dream11Prediction #IPL2021 #IPLfantasyleague #MIvSRH #MIvsSRH #MI #SRH #FantasyTeams #Like #Follow",16.0,25551.0,2001.0,866.0,https://pbs.twimg.com/profile_images/878891494886612992/Bcid7w6x_normal.jpg,278.0,0.0,1.0,0.0,1.0,3101.0,2021-04-17 08:35:02
tejash_24,16230.0,we are back with our popular daily poll who is winning today s match i pick srh as now,"#MIvsSRH 
We are back with our popular daily poll. Who is winning today's match?
I pick SRH as https://t.co/1NFC3PjQfC now..🗳
@Dream11
@HalaPlayDotCom
@PlayMPL
@CricPlay
@officialhowzat
@fanfight_app
@Zapakdotcom
@PaytmFirstGames
@ballebaazi",1.0,16230.0,1717.0,216.0,https://pbs.twimg.com/profile_images/1219162197026320384/AzLt_8zV_normal.jpg,241.0,0.0,1.0,9.0,0.0,17311.0,2021-04-17 08:33:53
by_kushal,1178.0,today takes on in from 7 30 pm nabi likely to return into side they should try out to bring virat singh or abhishekh sharma into the x1 mumbai indians likely to go with an unchanged side,"Today - #MI takes on #SRH in #IPL2021 from 7.30 pm - Nabi likely to return into side, they should try out to bring Virat Singh or Abhishekh Sharma into the X1 - Mumbai Indians likely to go with an unchanged side. #MIvSRH #SRHvsMI #SRHvMI #MIvsSRH",7.0,1178.0,20.0,48.0,https://pbs.twimg.com/profile_images/1382088147765325826/wVxuEVy-_normal.jpg,246.0,0.0,0.0,0.0,3.0,14142.0,2021-04-17 08:33:12
Nek42246550,89.0,mumbai will win,"@RevintoPvt Mumbai will win #IPL2021 #MumbaiIndians #OneFamily 
@RevintoPvt 
@indian_contests 
#REVINTOPREMIERLEAGUE
 #RohitSharma #MIvsSRH #RIPVivekSir #COVID19ON #RPL #BigWin #Win #Contest #IPL #Cricket",14.0,89.0,4.0,64.0,https://pbs.twimg.com/profile_images/1383110929492037634/jtpQ0OQI_normal.jpg,204.0,0.0,0.0,3.0,0.0,116.0,2021-04-17 08:32:14
isoumyaspeaks,1605.0,proper pace brigade against knuckleball merchants,proper pace brigade against knuckleball merchants! #MIvsSRH,1.0,1605.0,7.0,16.0,https://pbs.twimg.com/profile_images/1376289944654651392/PGL2z2Fr_normal.jpg,59.0,0.0,0.0,0.0,0.0,2231.0,2021-04-17 08:31:19
PandaEngineer,96.0,who will win todays match,"Who will win todays match ?
#IPL2021 
#IPL 
#MIvsSRH 
#MumbaiIndians 
#sunrisehydrabad",5.0,96.0,10.0,222.0,https://pbs.twimg.com/profile_images/1298293450559741952/-5G3BwSp_normal.jpg,86.0,0.0,0.0,0.0,0.0,860.0,2021-04-17 08:31:11
mguindore,102.0,comment your answer using amp follow don t forget to like share amp tag friends,"𝗠𝗮𝘁𝗰𝗵 𝟵, 𝗤𝘂𝗲𝘀𝘁𝗶𝗼𝗻 𝟵!!

Comment your answer using #MGUIPLContest2021  &amp; #HarGharKiRasoiKiShaan 

Follow 
@mguindore

Don't forget to Like, Share &amp; tag friends 

#IPL2021 #ContestAlert #contestalertindia #ContestGiveAway #SRHvsMI #MIvsSRH 
@ContestFeeds https://t.co/zyb2lJS6lO",8.0,102.0,371.0,4.0,https://pbs.twimg.com/profile_images/1381229650651742211/XXpPDGwV_normal.jpg,283.0,125.0,1.0,2.0,135.0,68.0,2021-04-17 08:30:42
guru_ashis,8843.0,sunrisers hyderabad join,"@DealSquad_ @DealSquad_ 
SunRisers Hyderabad 

#IPL2021 #VIVOIPL #MIvSRH #SRHvMI #MIvsSRH #SRHvsMI #MI #SRH #MumbaiIndians #SunRisersHyderabad #OrangeOrNothing #OrangeArmy #OneFamily 

Join 
@rachit_g2 
@toposant55 
@sanket17_ 
@UdayaKumarPari8 
@sanchitabhartiy",13.0,8843.0,201.0,1363.0,https://pbs.twimg.com/profile_images/1378733800876728322/yY8OZ0vK_normal.jpg,262.0,0.0,0.0,7.0,1.0,4586.0,2021-04-17 08:26:44
cric_blog,34093.0,key game for srh to avoid 3 straight losses preview fantasy prediction by key players to watch stats possible xis,"Key game for SRH to avoid 3 straight losses. #MIvSRH Preview + Fantasy Prediction | By @fantasyfreakk:

✅ Key players to watch + stats
✅ Possible XIs
✅ #Dream11

#MIvsSRH #SRHvsMI #IPL2021 

https://t.co/xpj2XF84vy",5.0,34093.0,10616.0,1822.0,https://pbs.twimg.com/profile_images/1066678856717750273/nK84kreR_normal.jpg,214.0,1.0,1.0,1.0,3.0,28097.0,2021-04-17 08:24:55
VivJonty,29272.0,it s a no brainer really if really want to qualify for the playoffs they gotta open with warner amp bairstow period,"@StarSportsIndia @SunRisers @jbairstow21 It's a no brainer really.

If #SRH really want to qualify for the playoffs, they gotta open with Warner &amp; Bairstow. Period.

#MIvsSRH #MIvSRH #SRHvsMI #SRHvMI #IPL2021",6.0,29272.0,227.0,61.0,https://pbs.twimg.com/profile_images/1377088894966005762/AIMl_2y5_normal.jpg,212.0,0.0,0.0,3.0,1.0,22413.0,2021-04-17 08:24:22
Niteish_14,8972.0,mi will win today won t be an easy win though there will be twists in between mi should bat first and score 172,"MI will win today

Won't be an easy win though, there will be twists in between.

MI should bat first and score ~172.

#MIvsSRH #MumbaiIndians #SRH",3.0,8972.0,836.0,304.0,https://pbs.twimg.com/profile_images/1380782019702050817/bzXDCR6a_normal.jpg,147.0,0.0,0.0,0.0,13.0,2285.0,2021-04-17 08:24:16
cricketgeekhere,3255.0,mi vs srh dream11 team mi vs srh dream11 prediction today dream11 via,"MI vs SRH Dream11 Team | MI vs SRH Dream11 Prediction | Today. Dream11  ... https://t.co/FIzTRFfCOy via @YouTube

#Dream11 #Dream11Team #dream11Prediction #MIvsSRH #MIvSRH",5.0,3255.0,15344.0,1.0,https://pbs.twimg.com/profile_images/883554171164557312/3xbo6epL_normal.jpg,171.0,1.0,1.0,1.0,7.0,3199.0,2021-04-17 08:23:25
Sureshb55075564,652.0,if rohit scores half century today or bumrah picks 3 wickets or both i need icecreams,"@swiggy_in If Rohit scores half century today or Bumrah picks 3 wickets,or both.I need icecreams.........#MIvsSRH",1.0,652.0,11.0,264.0,https://pbs.twimg.com/profile_images/1329302247067451392/X6eDNa9f_normal.jpg,113.0,0.0,0.0,1.0,0.0,6368.0,2021-04-17 08:23:11
aatik_patel23,14.0,hitman is 28 runs far to complete 4000 by captain in ipl,#MIvsSRH.  Hitman is 28 runs far to complete 4000 by captain in ipl...#RohithSharma #Hitman https://t.co/BCDZYQQQTg,3.0,14.0,4.0,186.0,https://pbs.twimg.com/profile_images/1311728117455618048/_skK426S_normal.jpg,115.0,0.0,1.0,0.0,0.0,218.0,2021-04-17 08:22:29
Nivas12112001,4760.0,yes there will be run out tagging,"@PINCInsurance Yes there will be Run Out..

#PlayWithPINC #PINCInsurance #ContestAlert #MIVsSRH 
Tagging:
@Ravicha56493252 
@G_Manojkumar1 
@ChennupatiVivek 
@porwal_sarika",4.0,4760.0,38.0,287.0,https://pbs.twimg.com/profile_images/1368205970497695751/_oFNQm2E_normal.jpg,172.0,0.0,0.0,5.0,0.0,10421.0,2021-04-17 08:21:16
tippers_legacy,601.0,match no 9 vs who will win,#IPL2021 MATCH NO. 9 #mi VS #OrangeArmy WHO WILL WIN..? #MIvsSRH #prediction #Dream11 #CricketLive,7.0,601.0,87.0,11.0,https://pbs.twimg.com/profile_images/1275416303227023360/vDsmEeMg_normal.jpg,98.0,0.0,0.0,0.0,0.0,24.0,2021-04-17 08:21:10
yuvarajmamidi,20650.0,let s win and give him a smile on face,@SunRisers Let's win and give him a smile on face #MIvsSRH,1.0,20650.0,307.0,341.0,https://pbs.twimg.com/profile_images/1377675440672763906/1nE8rZLb_normal.jpg,58.0,0.0,0.0,1.0,0.0,20626.0,2021-04-17 08:20:39
RAJ04111998,42.0,will srh take a hard call i would like to see ken for jonny and bhuvi s deth bowling execution,"Will SRH take a hard call ???? i would like to see Ken for jonny , and Bhuvi's Deth bowling Execution............. #MIvsSRH",1.0,42.0,3.0,83.0,https://pbs.twimg.com/profile_images/1355051145597771782/YFP71qg8_normal.jpg,123.0,1.0,0.0,0.0,1.0,12.0,2021-04-17 08:20:05
itzz__ammar,623.0,head to head mi won 4 srh won 6 vanue scoring pattern matches won bowling 1st 35 matches won batting 1st 49 ave 1st innings 160 ave 2nd innings 126 srh vs umpires,"#MIvsSRH :- 

Head to Head //

MI Won ~ 4
SRH Won ~ 6 🔥

Vanue Scoring Pattern :- 

Matches won bowling 1st ~ 35
Matches Won Batting 1st ~ 49

Ave 1st Innings  ~ 160

Ave 2nd Innings ~ 126

SRH vs Umpires 😎 https://t.co/LWpVwWz7I5",1.0,623.0,328.0,286.0,https://pbs.twimg.com/profile_images/1382591845524516867/k0XBqrpc_normal.jpg,230.0,6.0,1.0,0.0,29.0,527.0,2021-04-17 08:18:20
Viratia53504122,953.0,crossing my fingers for you go go go,"#MIvsSRH
💚💚💚
“Crossing my fingers for you! Go, go, go!” @mipaltan

#MI #MatchDay
#MIvsSRH #RohitSharma @ImRo45 https://t.co/Lib7AXF6Tp",5.0,953.0,220.0,396.0,https://pbs.twimg.com/profile_images/1382218470239141888/0roj7OqG_normal.jpg,134.0,1.0,1.0,2.0,4.0,708.0,2021-04-17 08:17:17
SHAANISHILPA,28690.0,yes there will be a run out in the mumbai indians vs sunrisers hyderabad match at 7 30 pm,"@PINCInsurance Yes,  there will be a run-out in the MUMBAI INDIANS Vs SUNRISERS HYDERABAD  match  at 7.30 pm. @prachimana @itzzmesush @friend_4eve  @blessedkamal @nishtha__ @sanchitabhartiy @Gajendr86877221 @Ramprasad43 @AnitaYa05853817 

#PlayWithPINC #PINCInsurance #ContestAlert #MIVsSRH https://t.co/wAwfaIeuoM",4.0,28690.0,1613.0,3659.0,https://pbs.twimg.com/profile_images/1308356739293679616/6akOxHZf_normal.jpg,314.0,1.0,1.0,10.0,4.0,47914.0,2021-04-17 08:16:29
UppalapatiDhan2,3.0,go mi,#MIvsSRH go MI💥💥,1.0,3.0,1.0,55.0,https://abs.twimg.com/sticky/default_profile_images/default_profile_normal.png,16.0,0.0,0.0,0.0,0.0,153.0,2021-04-17 08:12:28
SaddamMolla0071,10852.0,sunrisers hyderabad will win join,"@DealSquad_ Sunrisers Hyderabad will win

#VIVOIPL #MIvSRH #SRHvMI #MIvsSRH #SRHvsMI #MI  #SRH  #MumbaiIndians  #SunRisersHyderabad #OrangeOrNothing  #OrangeArmy  #OneFamily 

join
@chilled_Sup
@akhila_akki06",12.0,10852.0,220.0,1654.0,https://pbs.twimg.com/profile_images/1383186518592786434/hS7pH-5-_normal.jpg,208.0,0.0,0.0,3.0,0.0,21246.0,2021-04-17 08:12:08
Kamireddyrakes1,373.0,need that old back in to the game,Need that  old @ImRo45 back in to the game #RohithSharma #MIvsSRH #MumbaiIndians @mipaltan,3.0,373.0,3.0,9.0,https://pbs.twimg.com/profile_images/1351772186009165826/1W93cQ0c_normal.jpg,90.0,0.0,0.0,2.0,0.0,502.0,2021-04-17 08:10:02
ElevenCri,14.0,participate today in what promises to be a cracker of a join with 1 team and get 61 off on the big bull contest join with 2 teams and get 20 off on the winner contest vs,"Participate today in what promises to be a cracker of a #contest !!🏆
Join with 1 #crieleven Team and Get 61% off on THE BIG BULL CONTEST🤩
Join with 2 Teams and Get 20% off on THE WINNER CONTEST🤑
#MumbaiIndians 💪VS #SunrisersHyderabad 🏋️‍♀️
#VivoIPL2021 #earnmoneyonline #MIvsSRH https://t.co/vb7lYpWqTT",7.0,14.0,1.0,10.0,https://pbs.twimg.com/profile_images/1375003186088439811/ayTnCX7C_normal.jpg,302.0,0.0,1.0,0.0,1.0,14.0,2021-04-17 08:09:32
SaddamMolla0071,10852.0,hyderabad miyas join,"@RevintoPvt Hyderabad miyas

#REVINTOPREMIERLEAGUE  #RohitSharma #MIvsSRH #RIPVivekSir #COVID19ON #RPL #BigWin #Win #IPL #Cricket

join
@chilled_Sup
@AlexNoorMdKhan1",10.0,10852.0,220.0,1654.0,https://pbs.twimg.com/profile_images/1383186518592786434/hS7pH-5-_normal.jpg,165.0,0.0,0.0,3.0,1.0,21246.0,2021-04-17 08:09:24
KunalPa55271476,5400.0,amchi mumbai winner in this match join,"@RevintoPvt Amchi Mumbai  winner in this match🥰

#REVINTOPREMIERLEAGUE
 #RohitSharma #MIvsSRH 
#RIPVivekSir #COVID19ON #RPL #BigWin #Win #Contest #IPL #Cricket @RevintoPvt

Join
@abha_mishra19 
@Dazzlingcutie1 
@AvanParihar 
@eyedipu 
@manikumar4144 
@harryHardeep11",11.0,5400.0,114.0,1467.0,https://pbs.twimg.com/profile_images/1383346407801647104/D5jSVPAy_normal.jpg,266.0,1.0,0.0,8.0,2.0,4174.0,2021-04-17 08:09:21
prekshha,503.0,full sumport 2,Full sumport 2 #SRH #MIvsSRH https://t.co/4eD3512vjx,2.0,503.0,37.0,114.0,https://pbs.twimg.com/profile_images/1383311981071900676/k4QSYLVU_normal.jpg,52.0,0.0,1.0,0.0,1.0,400.0,2021-04-17 08:09:04
naveen_avala,2247.0,who will win today,"Who will win today 
#MIvsSRH #IPLWinBonus #IPL2021 #IPL #VIVOIPL @mipaltan @SunRisers #MumbaiIndians #DavidWarner",7.0,2247.0,67.0,269.0,https://pbs.twimg.com/profile_images/1348493008082149377/-9RxaSUa_normal.jpg,113.0,0.0,0.0,2.0,0.0,3767.0,2021-04-17 08:05:36
Wager37155394,99.0,in these tough times when everyone is feeling low we have activated our match prediction contest on our cashbaaz app help you earn tons of cash prizes app,"In these tough times when everyone is feeling low, we have activated our #MIvsSRH match prediction contest on our Cashbaaz App, help you earn tons of cash prizes App.https://t.co/Xn2zsdYaO0
#iplprediction #ipl2021 #cashapp #cashprizes #winmoney #matchprediction  #predictiontime https://t.co/tsyRdWUJdN",8.0,99.0,46.0,82.0,https://pbs.twimg.com/profile_images/1358761409606111235/fV1wCKhf_normal.jpg,302.0,0.0,2.0,0.0,0.0,28.0,2021-04-17 08:05:14
CreativeIdeasHQ,354.0,weekend and wear what you mean now,"Weekend and #IPL

Wear what you mean now - https://t.co/FrFpvLl8PJ
.
.
#CreativeIdeas #JalsaChe #IPL2021 #MIvsSRH #GujaratiVerified #Gujarat #Gujarati #RannOfKutch #Tshirts #GraphicTshirt #POTD #GujaratTourism #Weekend #SaturdayMorning https://t.co/gox35rJbJw",15.0,354.0,113.0,164.0,https://pbs.twimg.com/profile_images/1121399059120443392/T55rxCpE_normal.png,259.0,0.0,2.0,0.0,0.0,113.0,2021-04-17 08:04:58
oyegautam,4528.0,match 9 rashid gt 2 wickets rohit sharma lt 30 boult gt 2 wickets srh will win,"Match 9: #MIvsSRH 
•Rashid &gt;2 wickets
•Rohit Sharma &lt;30
•Boult &gt;2 wickets
•SRH will win.",1.0,4528.0,269.0,216.0,https://pbs.twimg.com/profile_images/1383056238183817216/n0Tfw5mk_normal.jpg,97.0,0.0,0.0,0.0,0.0,4467.0,2021-04-17 08:04:29
